module gitlab.com/abrorbeksoft/telegram-api-gateway

go 1.16

require (
	github.com/gin-gonic/gin v1.7.4
	github.com/go-openapi/spec v0.20.4 // indirect
	github.com/go-playground/validator/v10 v10.9.0 // indirect
	github.com/golang/protobuf v1.5.2 // indirect
	github.com/joho/godotenv v1.4.0
	github.com/json-iterator/go v1.1.12 // indirect
	github.com/mailru/easyjson v0.7.7 // indirect
	github.com/mattn/go-isatty v0.0.14 // indirect
	github.com/modern-go/concurrent v0.0.0-20180306012644-bacd9c7ef1dd // indirect
	github.com/spf13/cast v1.4.1
	github.com/swaggo/files v0.0.0-20210815190702-a29dd2bc99b2
	github.com/swaggo/gin-swagger v1.3.3
	github.com/swaggo/swag v1.7.4
	github.com/ugorji/go v1.2.6 // indirect
	golang.org/x/crypto v0.0.0-20210921155107-089bfa567519 // indirect
	golang.org/x/net v0.0.0-20211104170005-ce137452f963 // indirect
	golang.org/x/sys v0.0.0-20211103235746-7861aae1554b // indirect
	golang.org/x/tools v0.1.7 // indirect
	google.golang.org/grpc v1.42.0
	google.golang.org/protobuf v1.27.1
)
